TP N° 1: Análisis exploratorio de datos
…
Para cargar los datos se necestia el paquete readxl. Si no está en nuestra instalación de R hay que instalarlo por primera vez con el comando install.packages("nombre_paquete"). Luego en cada sesion que se necesite el paquete hay que cargarlo en memoria con library(nombre_paquete)

# Instalación por única vez
install.packages("readxl")

# En cada sesion
library(readxl)

# Cargar datos
terneros <- read_excel("pesada_terneros.xlsx")

# Visualizar
View(terneros)

# A tibble: 1,598 x 8
   IDV   Procedencia Sexo  `Fecha Ingreso`     Categoria Fecha              
   <chr> <chr>       <chr> <dttm>              <chr>     <dttm>             
 1 NR04~ La Rosita   Macho 2017-07-20 00:00:00 Ternero   2017-04-06 00:00:00
 2 GN68~ La Rosita   Macho 2017-07-20 00:00:00 Ternero   2017-04-06 00:00:00
 3 AI10~ La Rosita   Macho 2017-07-21 00:00:00 Ternero   2017-04-06 00:00:00
 4 TM60~ La Rosita   Macho 2017-07-20 00:00:00 Ternero   2017-04-06 00:00:00
 5 TM42~ La Rosita   Macho 2017-07-24 00:00:00 Ternero   2017-04-06 00:00:00
 6 LH83~ La Rosita   Macho 2017-07-24 00:00:00 Ternero   2017-04-06 00:00:00
 7 NR04~ La Rosita   Macho 2017-07-21 00:00:00 Ternero   2017-04-06 00:00:00
 8 LH83~ La Rosita   Macho 2017-07-24 00:00:00 Ternero   2017-04-06 00:00:00
 9 GN68~ La Rosita   Macho 2017-07-21 00:00:00 Ternero   2017-04-06 00:00:00
10 QW11~ La Rosita   Macho 2017-07-24 00:00:00 Ternero   2017-04-06 00:00:00
# ... with 1,588 more rows, and 2 more variables: Hora <dttm>, Peso <dbl>
…
Agrupe las variables según tipo de datos que almacenan y escalas de medición.

Comente si los datos pueden considerarse una muestra o una población.

Respuestas

Idem anterior, se necestia el paquete readxl

# Cargar datos
novillos <- read_excel("pesada_novillos.xlsx")

# Visualizar
View(novillos)

# A tibble: 1,842 x 13
   IDV   Tropa Procedencia Fecha_Ingreso Peso_inicial Peso_anterior GPV_anterior
   <chr> <dbl> <chr>       <chr>                <dbl>         <dbl>        <dbl>
 1 GH73~     2 <NA>        42939                  188           306           51
 2 IA67~     2 La Rosita   42940                  232           290            2
 3 PO15~     2 La Alameda  42939                  204           290           33
 4 GH73~     2 <NA>        42940                  204           303           27
 5 SZ20~     2 La Alameda  42940                  202           300           30
 6 IA67~     2 La Rosita   42940                  234           333           38
 7 PO15~     2 Los Corral~ 42938                  214           287           14
 8 PO15~     2 Los Corral~ 42939                  184           315           37
 9 NS50~     2 La Rosita   42938                  234           288            0
10 QX67~     2 La Alameda  42940                  206           262            2
# ... with 1,832 more rows, and 6 more variables: GDM_anterior <dbl>,
#   Fecha <chr>, Hora <chr>, Peso <dbl>, Días <dbl>, Días_total <dbl>
…
Cargue los datos en R utilizando la función readxl::read_excel() y examine la tabla con View().

Agrupe las variables según tipo de datos que almacenan y escalas de medición.

Respuestas

Idem anterior, se necestia el paquete readxl

# Cargar datos
tambos <- read_excel("tambos_2008-2015.xls")

# Visualizar
View(tambos)

# A tibble: 152 x 10
   Departamento Establecimientos  Vacas Vaquillonas Toros Terneros Terneras
   <chr>                   <dbl>  <dbl>       <dbl> <dbl>    <dbl>    <dbl>
 1 Belgrano                   24   3249        1451    37      363      556
 2 Caseros                    23   2768         897    59      379      503
 3 Castellanos              1182 179044       36428  4022    38943    90600
 4 Constitución                3    391         146     8       22       16
 5 Garay                       0      0           0     0        0        0
 6 Gral. López               139  35885       17599   396     4252     9365
 7 Gral. Oblig~               35   2675         825    73      442      733
 8 Iriondo                   137  22817        6250   381     2580     5292
 9 La Capital                121  13813        5872   226     2524     3260
10 Las Colonias             1066 128631       59585  2266    26249    31807
# ... with 142 more rows, and 3 more variables: Novillos <dbl>,
#   Novillitos <dbl>, Año <dbl>
…
Determine cuál es la variable en estudio, qué tipo de datos contiene y qué escala de medición puede aplicarse.

Comente cual es la población y la muestra en este caso.

Respuestas

Se necestia el paquete readr, instalar pro primera vez.

# Cargar datos
ryegrass <- read_table("ryegrass.txt")

# Visualizar
View(ryegrass)

# A tibble: 76 x 2
   planta longitud
    <dbl>    <dbl>
 1      1       15
 2      2       12
 3      3        5
 4      4       10
 5      5       10
 6      6       12
 7      7       13
 8      8       11
 9      9       12
10     10       13
# ... with 66 more rows
…
Considere las variables: Id_lote, Prof, Condicion, MO, P. Determine qué tipo de datos contiene y qué escala de medición puede aplicarse.

Defina la población de este estudio.

Respuestas

Idem

# Cargar datos
lotesBA <- read_excel("Lote_BA.xls")

# Visualizar
View(loteBA)

# A tibble: 156 x 15
   Id_lote Id_muestra   lat  long Prof  Condicion    MO    Nt     P pH_actual
   <chr>   <chr>      <dbl> <dbl> <chr> <chr>     <dbl> <dbl> <dbl>     <dbl>
 1 1       5950       -31.8 -61.4 0-15  BA          3.7 0.189   114       6  
 2 1       5952       -31.8 -61.4 15-30 BA          2.6 0.132    71       6.2
 3 1       5951       -31.8 -61.4 0-15  L           2.7 0.151    33       5.8
 4 1       5953       -31.8 -61.4 15-30 L           1.8 0.116    35       5.9
 5 2       5954       -31.8 -61.1 0-15  BA          2.9 0.178    73       6.3
 6 2       5956       -31.8 -61.1 15-30 BA          2.2 0.131    65       6.4
 7 2       5955       -31.8 -61.1 0-15  L           2.7 0.165    41       5.7
 8 2       5957       -31.8 -61.1 15-30 L           2   0.106    25       5.9
 9 3       5958       -31.7 -61.0 0-15  BA          3.6 0.2      52       6.3
10 3       5960       -31.7 -61.0 15-30 BA          2.7 0.14     29       6.2
# ... with 146 more rows, and 5 more variables: Ca <dbl>, Mg <dbl>, Na <dbl>,
#   K <dbl>, CIC <dbl>
…
Agrupe las variables en categorías según el tipo de datos que contiene y la escala de medición que puede aplicarse.

Comente cual es la población objetivo.

Respuestas

Idem

# Cargar datos
arbolado <- read_excel("riesgo_arbolado.xlsx")

# Visualizar
View(arbolado)

# A tibble: 677 x 9
   Especie        DAP asim_copa dom_copa  cazuela DC     DT      DR       riesgo
   <chr>        <dbl> <chr>     <chr>     <chr>   <chr>  <chr>   <chr>     <dbl>
 1 Handroanthu~  30.6 nula      co-domin~ chica   mader~ horque~ sin dañ~      8
 2 Jacaranda m~  37.4 leve      dominante chica   sin d~ sin da~ ramas d~      9
 3 Handroanthu~  31.8 nula      dominante chica   sin d~ sin da~ sin dañ~      3
 4 Jacaranda m~  42   nula      dominante chica   sin d~ sin da~ ramas d~      9
 5 Jacaranda m~  35.2 leve      dominante grande  sin d~ sin da~ ramas d~      3
 6 Jacaranda m~  32.1 nula      dominante chica   sin d~ cortez~ sin dañ~      3
 7 Jacaranda m~  36   leve      dominante chica   sin d~ herida  sin dañ~      3
 8 Fraxinus pe~  27.7 nula      dominante mediana sin d~ sin da~ madera ~      5
 9 Fraxinus pe~  26.4 nula      dominante mediana sin d~ sin da~ sin dañ~      8
10 Fraxinus pe~  29   severa    co-domin~ chica   sin d~ sin da~ sin dañ~      8
# ... with 667 more rows
…
Para calcular los valores Z se necesita \(\bar{X}\) y \(s\)

terneros_glicinas <- terneros_glicinas %>%
  mutate(z = (Peso - mean(Peso))/sd(Peso))

terneros_glicinas %>%
  filter(abs(z) > 2)

# A tibble: 22 x 9
   IDV   Procedencia Sexo  `Fecha Ingreso`     Categoria Fecha              
   <chr> <chr>       <chr> <dttm>              <chr>     <dttm>             
 1 NO13~ Las Glicin~ Macho 2017-07-23 00:00:00 Ternero   2017-04-09 00:00:00
 2 OQ15~ Las Glicin~ Macho 2017-07-24 00:00:00 Ternero   2017-04-10 00:00:00
 3 NO13~ Las Glicin~ Macho 2017-07-23 00:00:00 Ternero   2017-04-10 00:00:00
 4 GT54~ Las Glicin~ Macho 2017-06-05 00:00:00 Ternero   2017-04-09 00:00:00
 5 OQ15~ Las Glicin~ Macho 2017-07-24 00:00:00 Ternero   2017-04-09 00:00:00
 6 OQ14~ Las Glicin~ Macho 2017-07-22 00:00:00 Ternero   2017-04-09 00:00:00
 7 SZ20~ Las Glicin~ Macho 2017-06-05 00:00:00 Ternero   2017-04-09 00:00:00
 8 OQ15~ Las Glicin~ Macho 2017-07-22 00:00:00 Ternero   2017-04-10 00:00:00
 9 NO13~ Las Glicin~ Macho 2017-07-22 00:00:00 Ternero   2017-04-10 00:00:00
10 NO13~ Las Glicin~ Macho 2017-07-22 00:00:00 Ternero   2017-04-10 00:00:00
# ... with 12 more rows, and 3 more variables: Hora <dttm>, Peso <dbl>, z <dbl>
…
Ejercicio 20

Con los datos de pesada_novillos.xlsx calcule la ganancia de peso vivo del período para cada novillo (GPV = Peso - Peso_anterior) y la ganancia diaria promedio del período (GDM = GPV / Días).

Mediante un gráfico de caja explore los resultados de GPV y GDM. ¿Hay datos raros? Si los hay fíltrelos y calcule la media, desvío y coeficiente de variación de cada tropa e interprételos.

Respuestas

novillos <- mutate(novillos, GPV = Peso - Peso_anterior, GDM = GPV / Días)
select(novillos, GPV, GDM)

# A tibble: 1,842 x 2
     GPV   GDM
   <dbl> <dbl>
 1    92 1.21 
 2    97 1.28 
 3    96 1.26 
 4    79 1.05 
 5    82 1.09 
 6    41 0.547
 7    84 1.12 
 8    54 0.711
 9    77 1.01 
10   103 0.780
# ... with 1,832 more rows
…
Según este gráifco la relación entre ambas variables es negativa. No obstante, el grupo de puntos con GPV = 0 puede estar modificando la relación.

filter(novillos, GPV_total == 0) %>% select(Peso, Peso_inicial)

# A tibble: 32 x 2
    Peso Peso_inicial
   <dbl>        <dbl>
 1   335          335
 2   314          314
 3   283          283
 4   272          272
 5   247          247
 6   244          244
 7   241          241
 8   235          235
 9   217          217
10   207          207
# ... with 22 more rows
…
La mediana es ligeramente menor y no hay diferencia entre media y media truncada. Esto se debe a que no hay valores extremos para este subgrupo, lo cual se vio en el gráfico anterior.

Dado qe los datos de P están en una columna y las profundidades en otra es necesario reformatear los datos para que quede una columna con los datos de P 0-15 y otra con 15-30. Esto se puede hacer en una planilla de calculos creando un nuevo set de datos de modo tal que tenga las columnas Id_lote (opciona), Condicion, P_0015 y P_1530.

A continuación la solucion alternativa con R y spread() de tidyr

Paso 1. Al contraro de gather(), spread() lo que hace es de una tabla longitudinal pasar a una apaisada, dividiendo una variabla en 2 columnas. En este caso queremos dividr los datos de P en dos columnas para cada profundidad.

loteBA_mod <- spread(loteBA, Prof, P)
loteBA_mod

# A tibble: 156 x 15
   Id_lote Id_muestra   lat  long Condicion    MO    Nt pH_actual    Ca    Mg
   <chr>   <chr>      <dbl> <dbl> <chr>     <dbl> <dbl>     <dbl> <dbl> <dbl>
 1 1       5950       -31.8 -61.4 BA          3.7 0.189       6     9.4  1.7 
 2 1       5952       -31.8 -61.4 BA          2.6 0.132       6.2   8.8  2.3 
 3 1       5951       -31.8 -61.4 L           2.7 0.151       5.8   7.1  1.5 
 4 1       5953       -31.8 -61.4 L           1.8 0.116       5.9   7.4  2.2 
 5 2       5954       -31.8 -61.1 BA          2.9 0.178       6.3   9.6  1.5 
 6 2       5956       -31.8 -61.1 BA          2.2 0.131       6.4  10.4  1.7 
 7 2       5955       -31.8 -61.1 L           2.7 0.165       5.7   7.8  1.1 
 8 2       5957       -31.8 -61.1 L           2   0.106       5.9   8    1.6 
 9 3       5958       -31.7 -61.0 BA          3.6 0.2         6.3  10.5  1.4 
10 3       5960       -31.7 -61.0 BA          2.7 0.14        6.2  10.7  1.95
# ... with 146 more rows, and 5 more variables: Na <dbl>, K <dbl>, CIC <dbl>,
#   `0-15` <dbl>, `15-30` <dbl>

Esto elimina la columna P y genera dos denominadas con valores de Prof, es decir 0-15 y 15-30.

select(loteBA_mod, Id_lote, Condicion, `0-15`, `15-30`)

# A tibble: 156 x 4
   Id_lote Condicion `0-15` `15-30`
   <chr>   <chr>      <dbl>   <dbl>
 1 1       BA           114      NA
 2 1       BA            NA      71
 3 1       L             33      NA
 4 1       L             NA      35
 5 2       BA            73      NA
 6 2       BA            NA      65
 7 2       L             41      NA
 8 2       L             NA      25
 9 3       BA            52      NA
10 3       BA            NA      29
# ... with 146 more rows

Al observar en detalle la distribución de valores se ve que cada registro o tiene el dato 0-15 o el dato 15-30. No obstante, necesitamos que haya 1 renglon para cada combinación de Id_lote y Condicion y ambos datos. Para eso podríamos tomar el promedio por Id_lote y Condicion.

loteBA_mod <- loteBA_mod %>%
  select(Id_lote, Condicion, `0-15`, `15-30`) %>%
  group_by(Id_lote, Condicion) %>% 
  summarise(P_0015 = mean(`0-15`, na.rm = T), P_1530 = mean(`15-30`, na.rm = T))
loteBA_mod

# A tibble: 66 x 4
# Groups:   Id_lote [33]
   Id_lote Condicion P_0015 P_1530
   <chr>   <chr>      <dbl>  <dbl>
 1 1       BA         114     71  
 2 1       L           33     35  
 3 12      BA          78     63  
 4 12      L           37     18  
 5 13      BA           9     24  
 6 13      L           36      6  
 7 14      BA          34    NaN  
 8 14      L           13     16  
 9 15      BA          42     35.7
10 15      L           19.5   18.3
# ... with 56 more rows
…
