TP Nº 8: Análisis de Regresión y Correlación Lineal
…
El coeficiente de correlación de estos datos (\(r\)) es -0.9976, lo cual indica un relación inversa y alta entre las variables estudiadas, es decir que a medida que aumento la dosis de fungicida el tamaño promedio de manchas en la hoja bandera, disminuye.

predict(mod, newdata = list(X = 260))

   1 
26.4 

El daño (tamaño promedio de las manchas) que se hallará si se aplican 260 gr.p.a./ha es de 26.4.

Ejercicio 12

Los datos se refieren al contenido de proteína bruta (PB) y caseína (CA) en leche en una muestra de 23 tambos de la cuenca lechera del centro del país.

# A tibble: 23 x 2
      PB    CA
   <dbl> <dbl>
 1  2.74  1.87
 2  3.19  2.26
 3  2.96  2.07
 4  2.91  2.09
 5  3.23  2.28
 6  3.04  2.04
 7  3.08  2.18
 8  3.23  2.3 
 9  3.11  2.17
10  3.11  2.15
# ... with 13 more rows
…
